…
    ## Rows: 483 Columns: 6
    ## ── Column specification ────────────────────────────────────────────────────────
    ## Delimiter: ","
    ## dbl (6): ID, Current Age, Sex, Education, apoe4, Age at onset
    ## 
    ## ℹ Use `spec()` to retrieve the full column specification for this data.
    ## ℹ Specify the column types or set `show_col_types = FALSE` to quiet this message.

``` r
MB
```

    ## # A tibble: 483 × 6
    ##       id current_age sex    education apoe4    age_at_onset
    ##    <dbl>       <dbl> <chr>      <dbl> <chr>           <dbl>
    ##  1     1        63.1 female        16 positive         NA  
    ##  2     2        65.6 female        20 positive         NA  
    ##  3     3        62.5 male          16 positive         66.8
    ##  4     4        69.8 female        16 negative         NA  
    ##  5     5        66   male          16 negative         68.7
    ##  6     6        62.5 male          16 negative         NA  
    ##  7     7        66.5 male          18 negative         74  
    ##  8     8        67.2 female        18 negative         NA  
    ##  9     9        66.7 female        16 negative         NA  
    ## 10    10        64.1 female        18 negative         NA  
    ## # ℹ 473 more rows
…
